…
    ## i 6 of 6 tuning:     rec_svm

    ## v 6 of 6 tuning:     rec_svm (40.4s)

### b. Model screening

``` r
#rank the models by the area under the roc curve
wflow_set_grid_results %>% 
  rank_results(rank_metric = "accuracy") %>% 
  filter(.metric == "accuracy" | .metric == "sens")
```

    ## # A tibble: 120 x 9
    ##    wflow_id .config       .metric  mean std_err     n preprocessor model    rank
    ##    <chr>    <chr>         <chr>   <dbl>   <dbl> <int> <chr>        <chr>   <int>
    ##  1 rec_rf   Preprocessor~ accura~ 0.744 0.0105      5 recipe       rand_f~     1
    ##  2 rec_rf   Preprocessor~ sens    0.796 0.0111      5 recipe       rand_f~     1
    ##  3 rec_rf   Preprocessor~ accura~ 0.741 0.0125      5 recipe       rand_f~     2
    ##  4 rec_rf   Preprocessor~ sens    0.821 0.0152      5 recipe       rand_f~     2
    ##  5 rec_rf   Preprocessor~ accura~ 0.74  0.0114      5 recipe       rand_f~     3
    ##  6 rec_rf   Preprocessor~ sens    0.810 0.00797     5 recipe       rand_f~     3
    ##  7 rec_rf   Preprocessor~ accura~ 0.739 0.00490     5 recipe       rand_f~     4
    ##  8 rec_rf   Preprocessor~ sens    0.787 0.00646     5 recipe       rand_f~     4
    ##  9 rec_rf   Preprocessor~ accura~ 0.733 0.00298     5 recipe       rand_f~     5
    ## 10 rec_rf   Preprocessor~ sens    0.785 0.00883     5 recipe       rand_f~     5
    ## # ... with 110 more rows
…
